digraph G {
	0 -> 3[label="#|#"];
	0 -> 1[label="#|#"];
	1 -> 2[label="#|#"];
	1 -> 4[label="a|#"];
	2 -> 8[label="#|#"];
	2 -> 5[label="b|#"];
	3 -> 6[label="b|#"];
	3 -> 7[label="c|#"];
	4 -> 5[label="b|#"];
	5 -> 9[label="#|#"];
	6 -> 7[label="b|#"];
	6 -> 9[label="#|#"];
	7 -> 8[label="#|#"];
	8 -> 9[label="a|#"];
	9 -> 10[label="a|#"];
	10[peripheries=2];
	0[shape=box];
}