digraph G {
	0 -> 1[label="a|#"];
	0 -> 1[label="b|#"];
	0 -> 0[label="c|#"];
	1 -> 2[label="a|#"];
	1 -> 3[label="b|#"];
	1 -> 4[label="c|#"];
	2 -> 1[label="a|#"];
	2 -> 4[label="b|#"];
	2 -> 3[label="c|#"];
	3 -> 4[label="a|#"];
	3 -> 1[label="b|#"];
	3 -> 2[label="c|#"];
	4 -> 4[label="a|#"];
	4 -> 4[label="b|#"];
	4 -> 4[label="c|#"];
	0[peripheries=2];
	0[peripheries=2];
	2[peripheries=2];
	3[peripheries=2];
	0[shape=box];
}