digraph G {
	0 -> 1[label="a|#"];
	0 -> 2[label="c|#"];
	1 -> 0[label="a|#"];
	1 -> 2[label="b|#"];
	2 -> 1[label="b|#"];
	2 -> 0[label="c|#"];
	0[peripheries=2];
	2[peripheries=2];
	0[shape=box];
	2[shape=box];
}