digraph G {
	0 -> 1[label="p|#"];
	1 -> 2[label="a|#"];
	2 -> 3[label="p|#"];
	3 -> 4[label="a|H"];
	0 -> 5[label="m|#"];
	5 -> 6[label="a|#"];
	6 -> 7[label="m|#"];
	7 -> 8[label="a|#"];
	8 -> 4[label="n|F"];
	4[peripheries=2];
	0[shape=box];
}